Tarea 1. Fundamentos Matemáticos.
…
#vectores con rep y seq
    
v1 = rep(c(4,3,2,1),c(4,4,4,4))
v2 = rep(seq(1:5),(c(1,2,3,4,5)))
v3 = rep(1:4,c(4))

Ejercicio 4:

mpg2 = mpg %>% 
  filter(class == "pickup") %>% 
  select(starts_with("c"))
mpg2

## # A tibble: 33 x 3
##      cyl   cty class 
##    <int> <int> <chr> 
##  1     6    15 pickup
##  2     6    14 pickup
##  3     6    13 pickup
##  4     6    14 pickup
##  5     8    14 pickup
##  6     8    14 pickup
##  7     8     9 pickup
##  8     8    11 pickup
##  9     8    11 pickup
## 10     8    12 pickup
## # ... with 23 more rows
…
## # A tibble: 4 x 2
##        region poblacion
##     <dbl+lbl>     <dbl>
## 1 1 [NE]       49135283
## 2 2 [N Cntrl]  58865670
## 3 3 [South]    74734029
## 4 4 [West]     43172490

# 5.2 Poblaciones totales en diagrama de barras

#5.3 Ordenar estados por población de mayor a menor
census %>% 
arrange(desc(pop))

## # A tibble: 50 x 12
##    state       region    pop poplt5 pop5_17 pop18p pop65p popurban medage  death
##    <chr>    <dbl+lbl>  <dbl>  <dbl>   <dbl>  <dbl>  <dbl>    <dbl>  <dbl>  <dbl>
##  1 Califor~ 4 [West]  2.37e7 1.71e6 4680558 1.73e7 2.41e6 21607606   29.9 186428
##  2 New York 1 [NE]    1.76e7 1.14e6 3551938 1.29e7 2.16e6 14858068   31.9 171769
##  3 Texas    3 [South] 1.42e7 1.17e6 3137045 9.92e6 1.37e6 11333017   28.2 108019
##  4 Pennsyl~ 1 [NE]    1.19e7 7.47e5 2375838 8.74e6 1.53e6  8220851   32.1 123261
##  5 Illinois 2 [N Cnt~ 1.14e7 8.42e5 2400796 8.18e6 1.26e6  9518039   29.9 102230
##  6 Ohio     2 [N Cnt~ 1.08e7 7.87e5 2307170 7.70e6 1.17e6  7918259   29.9  98268
##  7 Florida  3 [South] 9.75e6 5.70e5 1789412 7.39e6 1.69e6  8212385   34.7 104190
##  8 Michigan 2 [N Cnt~ 9.26e6 6.85e5 2066873 6.51e6 9.12e5  6551551   28.8  75102
##  9 New Jer~ 1 [NE]    7.36e6 4.63e5 1527572 5.37e6 8.60e5  6557377   32.2  68762
## 10 N. Caro~ 3 [South] 5.88e6 4.04e5 1253659 4.22e6 6.03e5  2822852   29.6  48426
## # ... with 40 more rows, and 2 more variables: marriage <dbl>, divorce <dbl>

# 5.4 Nueva variable tasa de divorcios/matrimonios
census %>% 
  mutate(tasa = divorce/marriage)

## # A tibble: 50 x 13
##    state      region     pop poplt5 pop5_17 pop18p pop65p popurban medage  death
##    <chr>    <dbl+lb>   <dbl>  <dbl>   <dbl>  <dbl>  <dbl>    <dbl>  <dbl>  <dbl>
##  1 Alabama  3 [Sout~  3.89e6 2.96e5  865836 2.73e6 4.40e5  2337713   29.3  35305
##  2 Alaska   4 [West]  4.02e5 3.89e4   91796 2.71e5 1.15e4   258567   26.1   1604
##  3 Arizona  4 [West]  2.72e6 2.14e5  577604 1.93e6 3.07e5  2278728   29.2  21226
##  4 Arkansas 3 [Sout~  2.29e6 1.76e5  495782 1.62e6 3.12e5  1179556   30.6  22676
##  5 Califor~ 4 [West]  2.37e7 1.71e6 4680558 1.73e7 2.41e6 21607606   29.9 186428
##  6 Colorado 4 [West]  2.89e6 2.16e5  592318 2.08e6 2.47e5  2329869   28.6  18925
##  7 Connect~ 1 [NE]    3.11e6 1.85e5  637731 2.28e6 3.65e5  2449774   32    26005
##  8 Delaware 3 [Sout~  5.94e5 4.12e4  125444 4.28e5 5.92e4   419819   29.8   5123
##  9 Florida  3 [Sout~  9.75e6 5.70e5 1789412 7.39e6 1.69e6  8212385   34.7 104190
## 10 Georgia  3 [Sout~  5.46e6 4.15e5 1231195 3.82e6 5.17e5  3409081   28.7  44230
## # ... with 40 more rows, and 3 more variables: marriage <dbl>, divorce <dbl>,
## #   tasa <dbl>
…
Los valores de height y weight están en pulgadas (inches) y libras (pounds) respectivamente. Una libra son \(\approx\) 0.454kg y una pulgada son \(\approx\) 0.0254m. Usa dplyr para convertir esas columnas a metros y kilogramos respectivamente. Las nuevas columnas deben llamarse igual que las originales.

library(dplyr)
chlstrl0 = chlstrl %>% 
  mutate(weight = weight * 0.454, height = height * 0.0254)
chlstrl0

## # A tibble: 403 x 7
##     chol   age gender height weight waist   hip
##    <dbl> <dbl> <chr>   <dbl>  <dbl> <dbl> <dbl>
##  1   203    46 female   1.57   54.9    29    38
##  2   165    29 female   1.63   99.0    46    48
##  3   228    58 female   1.55  116.     49    57
##  4    78    67 male     1.70   54.0    33    38
##  5   249    64 male     1.73   83.1    44    41
##  6   248    34 male     1.80   86.3    36    42
##  7   195    30 male     1.75   86.7    46    49
##  8   227    37 male     1.50   77.2    34    39
##  9   177    45 male     1.75   75.4    34    40
## 10   263    55 female   1.60   91.7    45    50
## # ... with 393 more rows

Ahora usa esos valores de height y weight para añadir una nueva columna llamada BMI, definida mediante: \[BMI = \dfrac{weight}{height^2}\] (se divide por el cuadrado de la altura).

chlstrl0 = chlstrl0 %>% 
  mutate(BMI = weight/(height^2))
chlstrl0

## # A tibble: 403 x 8
##     chol   age gender height weight waist   hip   BMI
##    <dbl> <dbl> <chr>   <dbl>  <dbl> <dbl> <dbl> <dbl>
##  1   203    46 female   1.57   54.9    29    38  22.2
##  2   165    29 female   1.63   99.0    46    48  37.5
##  3   228    58 female   1.55  116.     49    57  48.4
##  4    78    67 male     1.70   54.0    33    38  18.7
##  5   249    64 male     1.73   83.1    44    41  27.8
##  6   248    34 male     1.80   86.3    36    42  26.5
##  7   195    30 male     1.75   86.7    46    49  28.2
##  8   227    37 male     1.50   77.2    34    39  34.4
##  9   177    45 male     1.75   75.4    34    40  24.5
## 10   263    55 female   1.60   91.7    45    50  35.8
## # ... with 393 more rows

Crea una nueva columna llamada ageGroup dividiendo la edad en los siguientes tres niveles:

(10,40], (40,70], (70,100]

chlstrl0 = chlstrl0 %>% 
  mutate(ageGroup = cut(age,breaks = c(10,40,70,100)))
chlstrl0

## # A tibble: 403 x 9
##     chol   age gender height weight waist   hip   BMI ageGroup
##    <dbl> <dbl> <chr>   <dbl>  <dbl> <dbl> <dbl> <dbl> <fct>   
##  1   203    46 female   1.57   54.9    29    38  22.2 (40,70] 
##  2   165    29 female   1.63   99.0    46    48  37.5 (10,40] 
##  3   228    58 female   1.55  116.     49    57  48.4 (40,70] 
##  4    78    67 male     1.70   54.0    33    38  18.7 (40,70] 
##  5   249    64 male     1.73   83.1    44    41  27.8 (40,70] 
##  6   248    34 male     1.80   86.3    36    42  26.5 (10,40] 
##  7   195    30 male     1.75   86.7    46    49  28.2 (10,40] 
##  8   227    37 male     1.50   77.2    34    39  34.4 (10,40] 
##  9   177    45 male     1.75   75.4    34    40  24.5 (40,70] 
## 10   263    55 female   1.60   91.7    45    50  35.8 (40,70] 
## # ... with 393 more rows
…
Haz el ejercicio 1 de la Sección 5.2.4 de R4DS.

library(nycflights13)

## Warning: package 'nycflights13' was built under R version 4.1.1

flights

## # A tibble: 336,776 x 19
##     year month   day dep_time sched_dep_time dep_delay arr_time sched_arr_time
##    <int> <int> <int>    <int>          <int>     <dbl>    <int>          <int>
##  1  2013     1     1      517            515         2      830            819
##  2  2013     1     1      533            529         4      850            830
##  3  2013     1     1      542            540         2      923            850
##  4  2013     1     1      544            545        -1     1004           1022
##  5  2013     1     1      554            600        -6      812            837
##  6  2013     1     1      554            558        -4      740            728
##  7  2013     1     1      555            600        -5      913            854
##  8  2013     1     1      557            600        -3      709            723
##  9  2013     1     1      557            600        -3      838            846
## 10  2013     1     1      558            600        -2      753            745
## # ... with 336,766 more rows, and 11 more variables: arr_delay <dbl>,
## #   carrier <chr>, flight <int>, tailnum <chr>, origin <chr>, dest <chr>,
## #   air_time <dbl>, distance <dbl>, hour <dbl>, minute <dbl>, time_hour <dttm>

flights %>% 
  filter(arr_delay >= 120)

## # A tibble: 10,200 x 19
##     year month   day dep_time sched_dep_time dep_delay arr_time sched_arr_time
##    <int> <int> <int>    <int>          <int>     <dbl>    <int>          <int>
##  1  2013     1     1      811            630       101     1047            830
##  2  2013     1     1      848           1835       853     1001           1950
##  3  2013     1     1      957            733       144     1056            853
##  4  2013     1     1     1114            900       134     1447           1222
##  5  2013     1     1     1505           1310       115     1638           1431
##  6  2013     1     1     1525           1340       105     1831           1626
##  7  2013     1     1     1549           1445        64     1912           1656
##  8  2013     1     1     1558           1359       119     1718           1515
##  9  2013     1     1     1732           1630        62     2028           1825
## 10  2013     1     1     1803           1620       103     2008           1750
## # ... with 10,190 more rows, and 11 more variables: arr_delay <dbl>,
## #   carrier <chr>, flight <int>, tailnum <chr>, origin <chr>, dest <chr>,
## #   air_time <dbl>, distance <dbl>, hour <dbl>, minute <dbl>, time_hour <dttm>

flights %>% 
  filter(dest == "IAH"|dest == "HOU")

## # A tibble: 9,313 x 19
##     year month   day dep_time sched_dep_time dep_delay arr_time sched_arr_time
##    <int> <int> <int>    <int>          <int>     <dbl>    <int>          <int>
##  1  2013     1     1      517            515         2      830            819
##  2  2013     1     1      533            529         4      850            830
##  3  2013     1     1      623            627        -4      933            932
##  4  2013     1     1      728            732        -4     1041           1038
##  5  2013     1     1      739            739         0     1104           1038
##  6  2013     1     1      908            908         0     1228           1219
##  7  2013     1     1     1028           1026         2     1350           1339
##  8  2013     1     1     1044           1045        -1     1352           1351
##  9  2013     1     1     1114            900       134     1447           1222
## 10  2013     1     1     1205           1200         5     1503           1505
## # ... with 9,303 more rows, and 11 more variables: arr_delay <dbl>,
## #   carrier <chr>, flight <int>, tailnum <chr>, origin <chr>, dest <chr>,
## #   air_time <dbl>, distance <dbl>, hour <dbl>, minute <dbl>, time_hour <dttm>

flights %>% 
  filter(carrier == "DL"|carrier == "UA"|carrier == "")

## # A tibble: 106,775 x 19
##     year month   day dep_time sched_dep_time dep_delay arr_time sched_arr_time
##    <int> <int> <int>    <int>          <int>     <dbl>    <int>          <int>
##  1  2013     1     1      517            515         2      830            819
##  2  2013     1     1      533            529         4      850            830
##  3  2013     1     1      554            600        -6      812            837
##  4  2013     1     1      554            558        -4      740            728
##  5  2013     1     1      558            600        -2      924            917
##  6  2013     1     1      558            600        -2      923            937
##  7  2013     1     1      559            600        -1      854            902
##  8  2013     1     1      602            610        -8      812            820
##  9  2013     1     1      606            610        -4      837            845
## 10  2013     1     1      607            607         0      858            915
## # ... with 106,765 more rows, and 11 more variables: arr_delay <dbl>,
## #   carrier <chr>, flight <int>, tailnum <chr>, origin <chr>, dest <chr>,
## #   air_time <dbl>, distance <dbl>, hour <dbl>, minute <dbl>, time_hour <dttm>

flights %>% 
  filter(month == 7|month == 8| month == 9)

## # A tibble: 86,326 x 19
##     year month   day dep_time sched_dep_time dep_delay arr_time sched_arr_time
##    <int> <int> <int>    <int>          <int>     <dbl>    <int>          <int>
##  1  2013     7     1        1           2029       212      236           2359
##  2  2013     7     1        2           2359         3      344            344
##  3  2013     7     1       29           2245       104      151              1
##  4  2013     7     1       43           2130       193      322             14
##  5  2013     7     1       44           2150       174      300            100
##  6  2013     7     1       46           2051       235      304           2358
##  7  2013     7     1       48           2001       287      308           2305
##  8  2013     7     1       58           2155       183      335             43
##  9  2013     7     1      100           2146       194      327             30
## 10  2013     7     1      100           2245       135      337            135
## # ... with 86,316 more rows, and 11 more variables: arr_delay <dbl>,
## #   carrier <chr>, flight <int>, tailnum <chr>, origin <chr>, dest <chr>,
## #   air_time <dbl>, distance <dbl>, hour <dbl>, minute <dbl>, time_hour <dttm>
…
## # A tibble: 3 x 19
##    year month   day dep_time sched_dep_time dep_delay arr_time sched_arr_time
##   <int> <int> <int>    <int>          <int>     <dbl>    <int>          <int>
## 1  2013    10     7     1350           1350         0     1736           1526
## 2  2013     5    23     1810           1810         0     2208           2000
## 3  2013     7     1      905            905         0     1443           1223
## # ... with 11 more variables: arr_delay <dbl>, carrier <chr>, flight <int>,
## #   tailnum <chr>, origin <chr>, dest <chr>, air_time <dbl>, distance <dbl>,
## #   hour <dbl>, minute <dbl>, time_hour <dttm>

#MAL
flights %>% 
  filter(dep_delay >= 60 & arr_delay <= 30)

## # A tibble: 239 x 19
##     year month   day dep_time sched_dep_time dep_delay arr_time sched_arr_time
##    <int> <int> <int>    <int>          <int>     <dbl>    <int>          <int>
##  1  2013     1     3     1850           1745        65     2148           2120
##  2  2013     1     3     1950           1845        65     2228           2227
##  3  2013     1     3     2015           1915        60     2135           2111
##  4  2013     1     6     1019            900        79     1558           1530
##  5  2013     1     7     1543           1430        73     1758           1735
##  6  2013     1    11     1020            920        60     1311           1245
##  7  2013     1    12     1706           1600        66     1949           1927
##  8  2013     1    12     1953           1845        68     2154           2137
##  9  2013     1    19     1456           1355        61     1636           1615
## 10  2013     1    21     1531           1430        61     1843           1815
## # ... with 229 more rows, and 11 more variables: arr_delay <dbl>,
## #   carrier <chr>, flight <int>, tailnum <chr>, origin <chr>, dest <chr>,
## #   air_time <dbl>, distance <dbl>, hour <dbl>, minute <dbl>, time_hour <dttm>

flights %>% 
  filter(dep_time >= 0000 & dep_time <=0600)

## # A tibble: 9,344 x 19
##     year month   day dep_time sched_dep_time dep_delay arr_time sched_arr_time
##    <int> <int> <int>    <int>          <int>     <dbl>    <int>          <int>
##  1  2013     1     1      517            515         2      830            819
##  2  2013     1     1      533            529         4      850            830
##  3  2013     1     1      542            540         2      923            850
##  4  2013     1     1      544            545        -1     1004           1022
##  5  2013     1     1      554            600        -6      812            837
##  6  2013     1     1      554            558        -4      740            728
##  7  2013     1     1      555            600        -5      913            854
##  8  2013     1     1      557            600        -3      709            723
##  9  2013     1     1      557            600        -3      838            846
## 10  2013     1     1      558            600        -2      753            745
## # ... with 9,334 more rows, and 11 more variables: arr_delay <dbl>,
## #   carrier <chr>, flight <int>, tailnum <chr>, origin <chr>, dest <chr>,
## #   air_time <dbl>, distance <dbl>, hour <dbl>, minute <dbl>, time_hour <dttm>
